…
pass the dots

the first, which literally blew my mind the first time i saw it, uses ..., and you pass the dots straight in when writing your function.

grouped_mean_delay_2 <- function(df, ...) {
  df %>%
    group_by(...) %>%
    summarise(mean_delay = mean(min_delay))
}

delays %>%
  grouped_mean_delay_2(day, line)

## # A tibble: 63 x 3
## # Groups:   day [7]
##    day    line        mean_delay
##    <chr>  <chr>            <dbl>
##  1 Friday <NA>              0   
##  2 Friday 16 MCCOWAN        0   
##  3 Friday 704 RAD BUS       0   
##  4 Friday BD                2.01
##  5 Friday SHP               2.04
##  6 Friday SRT               5.98
##  7 Friday YU                2.49
##  8 Friday YU / BD           0   
##  9 Friday YU/ BD            0   
## 10 Friday YU/BD             0   
## # … with 53 more rows
…
verbs that take ...

for verbs that take ..., you got to just pass the dots. but you cannot just pass the vars()! if you want to use a named argument, and vars(), then you have to expand the variables back out using !!! (that’s three bangs).

grouped_mean_delay_3 <- function(df, group_vars) {
  df %>%
    group_by(!!!group_vars) %>%
    summarise(mean_delay = mean(min_delay))
}

delays %>%
  grouped_mean_delay_3(group_vars = vars(day, line))

## # A tibble: 63 x 3
## # Groups:   day [7]
##    day    line        mean_delay
##    <chr>  <chr>            <dbl>
##  1 Friday <NA>              0   
##  2 Friday 16 MCCOWAN        0   
##  3 Friday 704 RAD BUS       0   
##  4 Friday BD                2.01
##  5 Friday SHP               2.04
##  6 Friday SRT               5.98
##  7 Friday YU                2.49
##  8 Friday YU / BD           0   
##  9 Friday YU/ BD            0   
## 10 Friday YU/BD             0   
## # … with 53 more rows
…
if i want to group by many variables and get the mean for many variables, then i can just throw a bunch of vars() in:

general_grouped_mean <- function(df, group_vars, mean_vars) {
  df %>%
    group_by(!!!group_vars) %>%
    summarise_at(mean_vars, mean)
}

delays %>%
  general_grouped_mean(
    group_vars = vars(line, day),
    mean_vars = vars(min_delay, min_gap)
  )

## # A tibble: 63 x 4
## # Groups:   line [16]
##    line        day       min_delay min_gap
##    <chr>       <chr>         <dbl>   <dbl>
##  1 <NA>        Friday        0        0   
##  2 <NA>        Monday        0        0   
##  3 <NA>        Saturday      0.667    1.11
##  4 <NA>        Sunday        0        0   
##  5 <NA>        Thursday      0        0   
##  6 <NA>        Tuesday       0        0   
##  7 <NA>        Wednesday     0        0   
##  8 16 MCCOWAN  Friday        0        0   
##  9 16 MCCOWAN  Saturday      0        0   
## 10 704 RAD BUS Friday        0        0   
## # … with 53 more rows
…
## Warning: funs() is soft deprecated as of dplyr 0.8.0
## please use list() instead
## 
## # Before:
## funs(name = f(.)
## 
## # After: 
## list(name = ~f(.))
## This warning is displayed once per session.

## # A tibble: 63 x 6
## # Groups:   day [7]
##    day    line  min_delay_mean min_gap_mean min_delay_median min_gap_median
##    <chr>  <chr>          <dbl>        <dbl>            <dbl>          <dbl>
##  1 Friday <NA>            0            0                   0              0
##  2 Friday 16 M…           0            0                   0              0
##  3 Friday 704 …           0            0                   0              0
##  4 Friday BD              2.01         2.91                0              0
##  5 Friday SHP             2.04         3.56                0              0
##  6 Friday SRT             5.98         9.31                4             10
##  7 Friday YU              2.49         3.66                0              0
##  8 Friday YU /…           0            0                   0              0
##  9 Friday YU/ …           0            0                   0              0
## 10 Friday YU/BD           0            0                   0              0
## # … with 53 more rows
…
