…
where it came from.

The data I have so far, unfortunately, doesn’t contain any of that information! So we need to go back to discogger for more.

Here’s what I have so far:

library(dplyr)
library(here)

basic_information_tidy <- readRDS(here("static", "data", "discogger", "basic_information_tidy.rds"))

basic_information_tidy

## # A tibble: 157 x 5
##    release_id title                artists_id format_descripti… format_name
##         <int> <chr>                <list>     <list>            <chr>      
##  1    7496378 Demo                 <int [1]>  <chr [1]>         Cassette   
##  2    4490852 Observant Com El Mo… <int [1]>  <chr [1]>         Vinyl      
##  3    5556486 Fuck Off             <int [1]>  <chr [1]>         Vinyl      
##  4    9827276 I                    <int [1]>  <chr [3]>         Vinyl      
##  5    9769203 Oído Absoluto        <int [1]>  <chr [2]>         Vinyl      
##  6    7237138 A Cat's Cause, No D… <int [1]>  <chr [2]>         Vinyl      
##  7   13117042 Tashme               <int [1]>  <chr [2]>         Vinyl      
##  8    7113575 Demo                 <int [1]>  <chr [1]>         Cassette   
##  9   10540713 Let The Miracles Be… <int [1]>  <chr [1]>         Cassette   
## 10   11260950 Sub Space            <int [1]>  <lgl [1]>         Cassette   
## # … with 147 more rows
…
Let’s pull them out! And, like before, the actual release information is in an element of the result list called content (the rest just contains information about the API call).

Note that I’ve set the .default argument in the map() functions to NA – otherwise, they return a NULL, which is way harder to work with! Would it be a blog post using purrr if I didn’t thank Jenny Bryan for telling me how to do something? 🙏

release_data <- release_data %>%
  mutate(result = map(data, "result", .default = NA),
         error = map(data, "error", .default = NA),
         release_content = map(result, "content", .default = NA))

release_data

## # A tibble: 157 x 5
##    release_id data       result                 error     release_content
##         <int> <list>     <list>                 <list>    <list>         
##  1    7496378 <list [2]> <S3: discogs_database> <lgl [1]> <list [31]>    
##  2    4490852 <list [2]> <S3: discogs_database> <lgl [1]> <list [34]>    
##  3    5556486 <list [2]> <S3: discogs_database> <lgl [1]> <list [32]>    
##  4    9827276 <list [2]> <S3: discogs_database> <lgl [1]> <list [34]>    
##  5    9769203 <list [2]> <S3: discogs_database> <lgl [1]> <list [34]>    
##  6    7237138 <list [2]> <S3: discogs_database> <lgl [1]> <list [34]>    
##  7   13117042 <list [2]> <S3: discogs_database> <lgl [1]> <list [33]>    
##  8    7113575 <list [2]> <S3: discogs_database> <lgl [1]> <list [34]>    
##  9   10540713 <list [2]> <S3: discogs_database> <lgl [1]> <list [33]>    
## 10   11260950 <list [2]> <S3: discogs_database> <lgl [1]> <list [32]>    
## # … with 147 more rows
…
We can grab those pretty easily, phew! And chuck everything else out. Again, I’m setting the default to be NA because those values might not be there for every release. If they’re not, I don’t want to deal with NULLs!

release_data <- release_data %>%
  mutate(year = map_dbl(release_content, "year", .default = NA_integer_),
         styles = map(release_content, "styles", .default = NA)) %>%
  select(-data, -result, -error, -release_content)

Like some things were in my last blog post, styles is a list of lists:

release_data

## # A tibble: 157 x 3
##    release_id  year styles    
##         <int> <dbl> <list>    
##  1    7496378  2015 <list [2]>
##  2    4490852  2013 <list [2]>
##  3    5556486  2014 <list [2]>
##  4    9827276  2017 <list [2]>
##  5    9769203  2017 <list [1]>
##  6    7237138  2015 <list [2]>
##  7   13117042  2019 <list [2]>
##  8    7113575  2014 <list [2]>
##  9   10540713  2015 <list [2]>
## 10   11260950  2017 <list [2]>
## # … with 147 more rows
…
Some releases are missing a style, so I’ll manually put what I think it should be.

release_data <- release_data %>%
  mutate(style = case_when(release_id %in% c(9477305) ~ "Post-Punk",
                           release_id %in% c(6022854, 4465008) ~ "Indie Rock",
                           release_id %in% c(7018322) ~ "Indie Pop",
                           release_id %in% c(2819870, 4298516) ~ "Hip Hop",
                           TRUE ~ style))

release_data

## # A tibble: 157 x 3
##    release_id  year style    
##         <int> <dbl> <chr>    
##  1    7496378  2015 Hardcore 
##  2    4490852  2013 Hardcore 
##  3    5556486  2014 Post-Punk
##  4    9827276  2017 Hardcore 
##  5    9769203  2017 Punk     
##  6    7237138  2015 Hardcore 
##  7   13117042  2019 Hardcore 
##  8    7113575  2014 Hardcore 
##  9   10540713  2015 Post-Punk
## 10   11260950  2017 Hardcore 
## # … with 147 more rows
…
Nice! If I didn’t modify the function to run insistently and safely, there would have been lots of errors. Believe me, I tried. 😅

All I want from the artist data are the profile and the name, which are pretty easy to grab.

artist_data <- artist_data %>%
  mutate(profile = map_chr(artist_content, "profile", .default = NA_character_),
         artist_name = map_chr(artist_content, "name", .default = NA_character_)) %>%
  select(artist_id = artists_id, profile, artist_name)

artist_data

## # A tibble: 120 x 3
##    artist_id profile                                     artist_name       
##        <int> <chr>                                       <chr>             
##  1   4619796 Canadian hardcore-punk band from Toronto, … Mollot            
##  2   3192745 Hardcore / punk band from Barcelona, Spain. Una Bèstia Incont…
##  3   2876549 Punk band from London, UK.                  Good Throb        
##  4   2769828 S.H.I.T. is a hardcore / punk band from To… S.H.I.T. (3)      
##  5   4282571 Punk band from Madrid (Spain).              Rata Negra        
##  6   3596548 American hardcore / punk band from New Yor… Ivy (18)          
##  7   5211980 Canadian hardcore / punk band from Toronto… Tashme            
##  8   4450861 Canadian hardcore / punk band from Calgary… Desgraciados      
##  9   4273896 Punk band from Kansas City.                 Phantom Head      
## 10   5694086 American hardcore-punk band from New York … Sub Space (2)     
## # … with 110 more rows

Now I want to do two things. The first is actually get the artist name – when there’s a duplicate artist name on discogs, they put a number in parentheses at the end of the name. I don’t want that!

artist_data <- artist_data %>%
  separate(artist_name, into = "artist_name", sep = " \\([0-9]")

artist_data

## # A tibble: 120 x 3
##    artist_id profile                                     artist_name       
##        <int> <chr>                                       <chr>             
##  1   4619796 Canadian hardcore-punk band from Toronto, … Mollot            
##  2   3192745 Hardcore / punk band from Barcelona, Spain. Una Bèstia Incont…
##  3   2876549 Punk band from London, UK.                  Good Throb        
##  4   2769828 S.H.I.T. is a hardcore / punk band from To… S.H.I.T.          
##  5   4282571 Punk band from Madrid (Spain).              Rata Negra        
##  6   3596548 American hardcore / punk band from New Yor… Ivy               
##  7   5211980 Canadian hardcore / punk band from Toronto… Tashme            
##  8   4450861 Canadian hardcore / punk band from Calgary… Desgraciados      
##  9   4273896 Punk band from Kansas City.                 Phantom Head      
## 10   5694086 American hardcore-punk band from New York … Sub Space         
## # … with 110 more rows
…
The next is a little more… complicated.

The band profile tends to take the format “… band from [location]”, with information about the location from “from” to the next period or to the end of the string. To extract this, I’m using a regex that I don’t totally understand, but that my coworker Sharleen has blogged about (and told me about when I bet she couldn’t do it even though she had already told me she did it 😬).

library(stringr)

artist_data <- artist_data %>%
  mutate(location = coalesce(str_extract(profile, "(?<=from\\s).+?(?=\\.)"),
                             str_extract(profile, "(?<=from).*"))) %>%
  separate(location, into = c("city", "province", "country"), sep = "[:punct:]") %>%
  mutate_at(vars(city, province, country), str_trim)

artist_data

## # A tibble: 120 x 6
##    artist_id profile                 artist_name    city   province country
##        <int> <chr>                   <chr>          <chr>  <chr>    <chr>  
##  1   4619796 Canadian hardcore-punk… Mollot         Toron… Ontario  <NA>   
##  2   3192745 Hardcore / punk band f… Una Bèstia In… Barce… Spain    <NA>   
##  3   2876549 Punk band from London,… Good Throb     London UK       <NA>   
##  4   2769828 S.H.I.T. is a hardcore… S.H.I.T.       Toron… Ontario  Canada 
##  5   4282571 Punk band from Madrid … Rata Negra     Madrid Spain    ""     
##  6   3596548 American hardcore / pu… Ivy            New Y… <NA>     <NA>   
##  7   5211980 Canadian hardcore / pu… Tashme         Toron… Ontario  <NA>   
##  8   4450861 Canadian hardcore / pu… Desgraciados   Calga… Alberta  <NA>   
##  9   4273896 Punk band from Kansas … Phantom Head   Kansa… <NA>     <NA>   
## 10   5694086 American hardcore-punk… Sub Space      New Y… <NA>     <NA>   
## # … with 110 more rows
…
library(maps)

countries <- world.cities %>%
  pull(country.etc) %>%
  unique()

artist_data <- artist_data %>%
  mutate(province_is_country = (is.na(country) | country == "") & province %in% countries,
         country = ifelse(province_is_country, province, country),
         province = ifelse(province_is_country, NA_character_, province)) %>%
  select(-province_is_country)

artist_data

## # A tibble: 120 x 6
##    artist_id profile                 artist_name    city   province country
##        <int> <chr>                   <chr>          <chr>  <chr>    <chr>  
##  1   4619796 Canadian hardcore-punk… Mollot         Toron… Ontario  <NA>   
##  2   3192745 Hardcore / punk band f… Una Bèstia In… Barce… <NA>     Spain  
##  3   2876549 Punk band from London,… Good Throb     London <NA>     UK     
##  4   2769828 S.H.I.T. is a hardcore… S.H.I.T.       Toron… Ontario  Canada 
##  5   4282571 Punk band from Madrid … Rata Negra     Madrid <NA>     Spain  
##  6   3596548 American hardcore / pu… Ivy            New Y… <NA>     <NA>   
##  7   5211980 Canadian hardcore / pu… Tashme         Toron… Ontario  <NA>   
##  8   4450861 Canadian hardcore / pu… Desgraciados   Calga… Alberta  <NA>   
##  9   4273896 Punk band from Kansas … Phantom Head   Kansa… <NA>     <NA>   
## 10   5694086 American hardcore-punk… Sub Space      New Y… <NA>     <NA>   
## # … with 110 more rows

That’s starting to look better! But some artists don’t even have a city:

artist_data %>%
  filter(is.na(city))

## # A tibble: 40 x 6
##    artist_id profile               artist_name       city  province country
##        <int> <chr>                 <chr>             <chr> <chr>    <chr>  
##  1   6370901 ""                    Small Man         <NA>  <NA>     <NA>   
##  2   4602432 ""                    Pines             <NA>  <NA>     <NA>   
##  3   4892872 ""                    Stuck Pigs        <NA>  <NA>     <NA>   
##  4   4911807 American hardcore-pu… Krimewatch        <NA>  <NA>     <NA>   
##  5   4993817 ""                    Pleather          <NA>  <NA>     <NA>   
##  6   6400672 ""                    Deedee Catpiss A… <NA>  <NA>     <NA>   
##  7   6400673 ""                    Disco Lemonade    <NA>  <NA>     <NA>   
##  8   6111119 ""                    Bad Example       <NA>  <NA>     <NA>   
##  9   5908156 ""                    Payback           <NA>  <NA>     <NA>   
## 10   5621225 ""                    FLEM              <NA>  <NA>     <NA>   
## # … with 30 more rows
…
Now I can put together my collection with information about the release and the artist!

collection_data <- basic_information_tidy %>%
  unnest() %>%
  left_join(release_data, by = "release_id") %>%
  left_join(artist_locations, by = c("artists_id" = "artist_id")) %>%
  select(release_id, title, format, artist_id = artists_id, artist_name, year, style, city, country = country.etc, lat, long)

collection_data

## # A tibble: 169 x 11
##    release_id title format artist_id artist_name  year style city  country
##         <int> <chr> <chr>      <int> <chr>       <dbl> <chr> <chr> <chr>  
##  1    7496378 Demo  Tape     4619796 Mollot       2015 Hard… Toro… Canada 
##  2    4490852 Obse… "12\""   3192745 Una Bèstia…  2013 Hard… Barc… Spain  
##  3    5556486 Fuck… "12\""   2876549 Good Throb   2014 Post… Lond… UK     
##  4    9827276 I     "7\""    2769828 S.H.I.T.     2017 Hard… Toro… Canada 
##  5    9769203 Oído… "12\""   4282571 Rata Negra   2017 Punk  Madr… Spain  
##  6    7237138 A Ca… "7\""    3596548 Ivy          2015 Hard… New … USA    
##  7   13117042 Tash… "7\""    5211980 Tashme       2019 Hard… Toro… Canada 
##  8    7113575 Demo  Tape     4450861 Desgraciad…  2014 Hard… Calg… Canada 
##  9   10540713 Let … Tape     4273896 Phantom He…  2015 Post… Kans… USA    
## 10   11260950 Sub … Tape     5694086 Sub Space    2017 Hard… New … USA    
## # … with 159 more rows, and 2 more variables: lat <dbl>, long <dbl>
…
