…
I thought it would be interesting to compare the weather in the three cities I’ve lived in (Calgary, Alberta; Vancouver, British Columbia; Toronto, Ontario) over the last 5ish years, since I started moving around. Did I make the right call? Should I have stayed in Calgary and continued to be cold forever? Did I move from Vancouver at a good time, since it’s colder there now than ever before (well, in my lifetime)?

Of course, moving around has a lot more to do with the weather. But this is just fun.

I’m using the rOpenSci riem package that Maëlle Salmon created (psst – did you know that Maëlle is looking for a remote data scientist/software engineer job? She is one of the smartest, most helpful people I’ve ever encountered. Her blog is incredible, she has a great way of approaching problems, she makes awesome R packages, and she is such a delight. Are you hiring? Hire Maëlle.).

This package gets weather data from airports. Luckily, everywhere I’ve lived has an airport so this data set is good for me!

First, let’s look at the networks available.

library(riem)

riem_networks() 

## # A tibble: 267 x 2
##    code     name                     
##    <chr>    <chr>                    
##  1 AE__ASOS United Arab Emirates ASOS
##  2 AF__ASOS Afghanistan ASOS         
##  3 AG__ASOS Antigua and Barbuda ASOS 
##  4 AI__ASOS Anguilla ASOS            
##  5 AK_ASOS  Alaska ASOS              
##  6 AL_ASOS  Alabama ASOS             
##  7 AL__ASOS Albania ASOS             
##  8 AM__ASOS Armenia ASOS             
##  9 AN__ASOS Netherlands Antilles ASOS
## 10 AO__ASOS Angola ASOS              
## # ... with 257 more rows
…
